[
    {
        "name": "Paan corner",
        "subCategory": []
    },
    {
        "name": "Chicken, Meat & Fish",
        "image":"https://cdn.grofers.com/cdn-cgi/image/f=auto,fit=scale-down,q=50,metadata=none,w=1440/layout-engine/2022-05/Group-33704.jpg",
        "subCategory": [
            "Exotic Meat",
            "Fish & Seafood",
            "Chicken",
            "Mutton",
            "Sausage, Salami & Ham",
        ]
    },
    {
        "name": "Pet Care",
        "subCategory": [
            "Dog Food & Treats",
            "Cat Food & Treats",
            "Pet Grooming & Accessories",
        ]
    },
    {
        "name": "Baby Care",
        "subCategory": [
            "Cleaning Needs",
            "Feeding Accessories",
            "Baby Pharma",
            "Oral & Nasal Care",
            "Diapers & Wipes",
            "Bath & Hair Care",
            "Skin Care",
            "Baby Food",
            "Mother Care",
        ]
    },
    
    {
        "name": ,
        "subCategory": []
    },
]



Sweet Tooth
Flavoured Yogurts
Ice Cream & More
Indian Sweets
Chocolates
Chocolate Packs
Chocolate Syrup
Candies & Gum
Mouth Fresheners
Tea, Coffee & Health Drinks
Vegan Drinks
Tea
Health Drinks
Herbal Drinks
Milk Drinks
Coffee
Dairy, Bread & Eggs
Cheese
Curd & Yogurt
Condensed Milk
Gourmet Cheese
Buns & Pav
Milk
Paneer & Tofu
Butter & More
Bread
Cream & Whitener
Eggs
Breakfast & Instant Food
Energy Bars
Frozen Veg
Breakfast Cereal
Noodles
Soup
Instant Mixes
Pasta
Plant Based Meat
Vermicelli
Ready to Eat
Frozen Non-Veg Snacks
Frozen Veg Snacks
Batter
Herbs & Seasoning
Atta, Rice & Dal
Other Flours
Moong & Masoor
Toor, Urad & Chana
Rice
Atta
Besan, Sooji & Maida
Poha, Daliya & Other Grains
Rajma, Chhole & Others
Cleaning Essentials
Floor Cleaners & More
Shoe Polish & Brush
Detergent Powder & Bars
Laundry Additives
Dishwashing Accessories
Toilet Cleaners & More
Dishwashing Bars
Liquid Detergents
Dishwashing Gels & Powder
Cleaning Tools
Disinfectant & More
Personal Care
Shampoo & Conditioner
Body Moisturizers & More
Hair Colour & More
Men's Grooming
Cosmetics
Soaps
Hand & Foot Care
Handwash
Hair Oil & Serum
Bath & Body Kits
Oral Care
Feminine Care
Shower Gels & Scrubs
Deodorants & Powders
Facial Care
Women's Grooming
Jewellery
Organic & Gourmet
Baby Food
Snacks & Munchies
Breakfast & More
Healthy Proteins
Beverages
Oil & Ghee
Pulses & Millets
Flour
Spices & Vinegar
Dairy Products
Veggies and Fruits
Cookies & Wafers
Cooking Essentials
Chocolates & Candies
Sauces & Spreads
Noodles & Pasta
Tea & Coffee
Rice & Rice Products
Salt, Sugar & Honey
Dry Fruits, Nuts & Seeds
Paan Corner
Hookah Needs
Paan
Cigarettes & Tobacco
Smoking Needs
Pharma & Wellness
Healthcare Devices
Cough & Cold
Wound Care And Pain Relief
Skin Treatment
Smoking Cessation
Digestive Care
Supplements
Adult Diapers
Sexual Wellness
Other Pharma
Antiseptic Liquid
Masks & Sanitizers
Cold Drinks & Juices
Energy Drinks
Coldpress
Concentrates & Syrups
Water & Ice Cubes
Fruit Juices
Soft Drinks
Soda & Mixers
Bakery & Biscuits
Cookies
Cream Biscuits
Rusks & Wafers
Cakes & Rolls
Sweet & Salty
Glucose & Marie
Healthy & Digestive
Baking Ingredients & Mixes
Gourmet Bakery
Sauces & Spreads
Cooking Sauces & Paste
Dips & Spreads
Jams
Honey
Chocolate Spreads
Chutney & Pickle
Asian Sauces
Tomato & Chilli Ketchups
Chyawanprash
Salad Dressings
Peanut Butter
Munchies
Namkeen Snacks
Papad & Fryums
Popcorn
Nachos
Healthy Snacks
Chips & Crisps
Bhujia & Mixtures
Home & Office
Bags
Party Essentials
Kids Toys & More
Repellents
Bathroom Essentials
Pooja Needs
Stationery Needs
Kitchen & Dining Needs
Tissues & Disposables
Fresheners
Electrical Accessories
Electronic Accessories
Home Decor & Storage
Festive & Occasion Needs
Clothing, Footwear & Accessories
Garbage Bags
Home & Kitchen Appliances
Books
Sports, Fitness & Outdoors
Vegetables & Fruits
Exotics & Premium
Freshly Cut & Sprouts
Gourmet Mushroom
Organic & Hydroponic
Combo Offer
Flowers
Vegetables
Fruits
Masala, Oil & More
Powdered Masala
Dates & Seeds
Oil
Whole Spices
Salt, Sugar & Jaggery
Ghee & Vanaspati
Dry Fruits
]
}